<?xml version="1.0" encoding="UTF-8" standalone="no"?>
<!DOCTYPE svg PUBLIC "-//W3C//DTD SVG 1.1//EN" "http://www.w3.org/Graphics/SVG/1.1/DTD/svg11.dtd">
<svg width="100%" height="100%" viewBox="0 0 454 71" version="1.1" xmlns="http://www.w3.org/2000/svg" xmlns:xlink="http://www.w3.org/1999/xlink" xml:space="preserve" xmlns:serif="http://www.serif.com/" style="fill-rule:evenodd;clip-rule:evenodd;stroke-linejoin:round;stroke-miterlimit:2;">
    <g transform="matrix(1,0,0,1,-755.906,-1133.86)">
        <g transform="matrix(0.989819,0,0,1.39329,322.812,-1361.89)">
            <text x="435.554px" y="1840.87px" style="font-family:'Courier-Bold', 'Courier';font-size:83.333px;fill:rgb(82,112,125);">O<tspan x="484.729px 533.904px " y="1840.87px 1840.87px ">RC</tspan></text>
        </g>
        <g transform="matrix(0.648673,0,0,1.37568,634.864,-1523.53)">
            <text x="443.902px" y="1981.38px" style="font-family:'Courier';font-size:83.333px;fill:rgb(82,112,125);">S<tspan x="493.077px 542.252px 591.427px 640.601px 689.776px 738.951px 788.126px 837.301px " y="1981.38px 1981.38px 1981.38px 1981.38px 1981.38px 1981.38px 1981.38px 1981.38px ">IMULATOR</tspan></text>
        </g>
    </g>
</svg>
